Greenbook section III.A.1. Calculation of Vegetation Water Requirement (VWR)
…
# datatable(vwr)
# 420 rows

# 30 sites, 2 periods, 7 species including other
# rows <- 30*2*7

Weighted average VWR/LAI

The sum of vwr for six species divided by sum of lai for six co-ocurring species provides estimates for VWRmax for the OTHER category.

This value is multiplied by the LAI of the OTHER column to obtain VWR for OTHER.

weighted.avg.

# A tibble: 60 x 4
# Groups:   site [30]
   site  period w_avg_vwr_per_lai species
   <chr> <chr>              <dbl> <chr>  
 1 BC1   july                15.5 OTHER  
 2 BC1   oct                 28.3 OTHER  
 3 BC2   july                18.9 OTHER  
 4 BC2   oct                 35.0 OTHER  
 5 BC3   july                16.7 OTHER  
 6 BC3   oct                 31.0 OTHER  
 7 BG2   july                10.4 OTHER  
 8 BG2   oct                 19.2 OTHER  
 9 BGC   july                15.2 OTHER  
10 BGC   oct                 28.2 OTHER  
# ... with 50 more rows
…
